{ "time": "2018-11-21 12:58:16.8354", "level": "INFO", "message": " viewed the adoption of Billy", "logger": "DogAdoption.Website.Controllers.AdoptionsController" }
{ "time": "2018-11-21 12:59:14.8479", "level": "INFO", "message": " viewed Sammy", "logger": "DogAdoption.Website.Controllers.DogsController" }
{ "time": "2018-11-21 12:59:54.8591", "level": "WARN", "message": "counselor@counselor.com failed to log in", "logger": "DogAdoption.Website.Controllers.AccountController" }
{ "time": "2018-11-21 13:00:08.1142", "level": "INFO", "message": "jklein1996@gmail.com logged in successfully", "logger": "DogAdoption.Website.Controllers.AccountController" }
